…
    "./data_hw2/mrtrashwheel.xlsx", 
    sheet = 1, 
    skip = 1,
    range = "A2:N338",
    col_names = TRUE,
    col_types = NULL) %>%
janitor::clean_names() %>%
drop_na() %>%
select(-homes_powered) %>%
mutate(sport_balls = as.integer(sports_balls)) %>%
select(-sports_balls)
mrtrashwheel_data
```

    ## # A tibble: 285 x 13
    ##    dumpster month  year date                weight_tons volume_cubic_ya…
    ##       <dbl> <chr> <dbl> <dttm>                    <dbl>            <dbl>
    ##  1        1 May    2014 2014-05-16 00:00:00        4.31               18
    ##  2        2 May    2014 2014-05-16 00:00:00        2.74               13
    ##  3        3 May    2014 2014-05-16 00:00:00        3.45               15
    ##  4        4 May    2014 2014-05-17 00:00:00        3.1                15
    ##  5        5 May    2014 2014-05-17 00:00:00        4.06               18
    ##  6        6 May    2014 2014-05-20 00:00:00        2.71               13
    ##  7        7 May    2014 2014-05-21 00:00:00        1.91                8
    ##  8        8 May    2014 2014-05-28 00:00:00        3.7                16
    ##  9        9 June   2014 2014-06-05 00:00:00        2.52               14
    ## 10       10 June   2014 2014-06-11 00:00:00        3.76               18
    ## # … with 275 more rows, and 7 more variables: plastic_bottles <dbl>,
    ## #   polystyrene <dbl>, cigarette_butts <dbl>, glass_bottles <dbl>,
    ## #   grocery_bags <dbl>, chip_bags <dbl>, sport_balls <int>
…
    ## Parsed with column specification:
    ## cols(
    ##   date = col_character(),
    ##   close = col_double()
    ## )

``` r
snp_data
```

    ## # A tibble: 787 x 3
    ##     year month    close
    ##    <int> <chr>    <dbl>
    ##  1  1950 April     18.0
    ##  2  1950 August    18.4
    ##  3  1950 December  20.4
    ##  4  1950 February  17.2
    ##  5  1950 January   17.0
    ##  6  1950 July      17.8
    ##  7  1950 June      17.7
    ##  8  1950 March     17.3
    ##  9  1950 May       18.8
    ## 10  1950 November  19.5
    ## # … with 777 more rows
…
``` r
 unemployment_data
```

    ## # A tibble: 816 x 3
    ##     year month      rate
    ##    <dbl> <chr>     <dbl>
    ##  1  1948 January     3.4
    ##  2  1948 February    3.8
    ##  3  1948 March       4  
    ##  4  1948 April       3.9
    ##  5  1948 May         3.5
    ##  6  1948 June        3.6
    ##  7  1948 July        3.6
    ##  8  1948 August      3.9
    ##  9  1948 September   3.8
    ## 10  1948 October     3.7
    ## # … with 806 more rows
…
    ## Parsed with column specification:
    ## cols(
    ##   `Year of Birth` = col_double(),
    ##   Gender = col_character(),
    ##   Ethnicity = col_character(),
    ##   `Child's First Name` = col_character(),
    ##   Count = col_double(),
    ##   Rank = col_double()
    ## )

``` r
popular_baby
```

    ## # A tibble: 12,181 x 5
    ## # Groups:   childs_first_name, rank, gender [10,383]
    ##    year_of_birth gender ethnicity                  childs_first_name  rank
    ##            <dbl> <chr>  <chr>                      <chr>             <dbl>
    ##  1          2016 FEMALE asian and pacific islander olivia                1
    ##  2          2016 FEMALE asian and pacific islander chloe                 2
    ##  3          2016 FEMALE asian and pacific islander sophia                3
    ##  4          2016 FEMALE asian and pacific islander emily                 4
    ##  5          2016 FEMALE asian and pacific islander emma                  4
    ##  6          2016 FEMALE asian and pacific islander mia                   5
    ##  7          2016 FEMALE asian and pacific islander charlotte             6
    ##  8          2016 FEMALE asian and pacific islander sarah                 7
    ##  9          2016 FEMALE asian and pacific islander isabella              8
    ## 10          2016 FEMALE asian and pacific islander hannah                8
    ## # … with 12,171 more rows

\*Create a table of the popularity of the name Olivia

``` r
female_name = 
  arrange(popular_baby, year_of_birth, ethnicity, childs_first_name) %>%
  filter(childs_first_name == "olivia")
female_name
```

    ## # A tibble: 24 x 5
    ## # Groups:   childs_first_name, rank, gender [11]
    ##    year_of_birth gender ethnicity                  childs_first_name  rank
    ##            <dbl> <chr>  <chr>                      <chr>             <dbl>
    ##  1          2011 FEMALE asian and pacific islander olivia                4
    ##  2          2011 FEMALE black                      olivia               10
    ##  3          2011 FEMALE hispanic                   olivia               18
    ##  4          2011 FEMALE white                      olivia                2
    ##  5          2012 FEMALE asian and pacific islander olivia                3
    ##  6          2012 FEMALE black                      olivia                8
    ##  7          2012 FEMALE hispanic                   olivia               22
    ##  8          2012 FEMALE white                      olivia                4
    ##  9          2013 FEMALE asian and pacific islander olivia                3
    ## 10          2013 FEMALE black                      olivia                6
    ## # … with 14 more rows

  - Create a table of the most popular male baby names

<!-- end list -->

``` r
male_name = 
  arrange(popular_baby, year_of_birth, ethnicity, childs_first_name) %>%
  filter(gender == "MALE", rank == 1)
male_name
```

    ## # A tibble: 24 x 5
    ## # Groups:   childs_first_name, rank, gender [8]
    ##    year_of_birth gender ethnicity                  childs_first_name  rank
    ##            <dbl> <chr>  <chr>                      <chr>             <dbl>
    ##  1          2011 MALE   asian and pacific islander ethan                 1
    ##  2          2011 MALE   black                      jayden                1
    ##  3          2011 MALE   hispanic                   jayden                1
    ##  4          2011 MALE   white                      michael               1
    ##  5          2012 MALE   asian and pacific islander ryan                  1
    ##  6          2012 MALE   black                      jayden                1
    ##  7          2012 MALE   hispanic                   jayden                1
    ##  8          2012 MALE   white                      joseph                1
    ##  9          2013 MALE   asian and pacific islander jayden                1
    ## 10          2013 MALE   black                      ethan                 1
    ## # … with 14 more rows
…
